<?xml version="1.0" encoding="utf-8"?>
<!-- Generator: Adobe Illustrator 21.0.2, SVG Export Plug-In . SVG Version: 6.00 Build 0)  -->
<svg version="1.1" id="Layer_1" xmlns="http://www.w3.org/2000/svg" xmlns:xlink="http://www.w3.org/1999/xlink" x="0px" y="0px"
	 width="30px" height="30px" viewBox="0 0 30 30" style="enable-background:new 0 0 30 30;" xml:space="preserve">
<style type="text/css">
	.st0{fill-rule:evenodd;clip-rule:evenodd;}
</style>
<g>
	<path class="st0" d="M24.7,23.3l-4.5-4.5c1.2-1.5,1.8-3.3,1.8-5.2C22,8.8,18.2,5,13.5,5C8.8,5,5,8.8,5,13.5c0,4.7,3.8,8.5,8.5,8.5
		c2,0,3.8-0.7,5.3-1.8l4.5,4.5c0.4,0.4,1,0.4,1.4,0C25.1,24.3,25.1,23.7,24.7,23.3z M13.5,20C9.9,20,7,17.1,7,13.5
		C7,9.9,9.9,7,13.5,7c3.6,0,6.5,2.9,6.5,6.5C20,17.1,17.1,20,13.5,20z"/>
</g>
</svg>
